pathologie • Tidy ICD-10-CM Interface • pathologie
…
ex_data() |>
  reframe(dob = date_of_birth,
          dos = date_of_service,
          icd_code,
          age = years_floor(dob, dos)) |>
  right_join(search_edits(group = "Age"), 
             by = join_by(icd_code)) |>
  mutate(
    conflict = apply_age_edits(icd_conflict_rule, age),
    dob = NULL,
    dos = NULL,
    icd_conflict_group = NULL
  )
#> # A tibble: 3,780 × 5
#>    icd_code   age icd_description                     icd_conflict_rule conflict
#>    <chr>    <dbl> <chr>                               <chr>             <chr>   
#>  1 Z00.00       7 Encntr for general adult medical e… Adult (Ages 15-1… Age Con…
#>  2 F53.0       33 Postpartum depression               Maternity (Ages … <NA>    
#>  3 F64.2       16 Gender identity disorder of childh… Pediatric (Ages … <NA>    
#>  4 Z91.82      37 Personal history of military deplo… Adult (Ages 15-1… <NA>    
#>  5 O90.6       30 Postpartum mood disturbance         Maternity (Ages … <NA>    
#>  6 Z00.00       9 Encntr for general adult medical e… Adult (Ages 15-1… Age Con…
#>  7 F64.2       12 Gender identity disorder of childh… Pediatric (Ages … <NA>    
#>  8 F53.0       30 Postpartum depression               Maternity (Ages … <NA>    
#>  9 F53.0       22 Postpartum depression               Maternity (Ages … <NA>    
#> 10 F53.0       29 Postpartum depression               Maternity (Ages … <NA>    
#> # ℹ 3,770 more rows
…
