pathologie • pathologie
…
Returns all 344 ICD-10 codes associated with tuberculosis:

icd10api(term = "tuber")

#> # A tibble: 344 × 2
#>    code   description                                 
#>    <chr>  <chr>                                       
#>  1 A15.0  Tuberculosis of lung                        
#>  2 A15.4  Tuberculosis of intrathoracic lymph nodes   
#>  3 A15.5  Tuberculosis of larynx, trachea and bronchus
#>  4 A15.6  Tuberculous pleurisy                        
#>  5 A15.7  Primary respiratory tuberculosis            
#>  6 A15.8  Other respiratory tuberculosis              
#>  7 A15.9  Respiratory tuberculosis unspecified        
#>  8 A17.0  Tuberculous meningitis                      
#>  9 A17.1  Meningeal tuberculoma                       
#> 10 A17.81 Tuberculoma of brain and spinal cord        
#> # ℹ 334 more rows
…
If you’re searching for codes beginning with a certain letter, you
must set the field parameter to "code" or it
will return both codes and terms that contain that letter.

For instance, the following call returns ICD-10
codes and descriptions containing the
letter “Z”:

icd10api(code = "z", limit = 50)

#> # A tibble: 50 × 2
#>    code   description                                                          
#>    <chr>  <chr>                                                                
#>  1 A28.8  Other specified zoonotic bacterial diseases, not elsewhere classified
#>  2 A28.9  Zoonotic bacterial disease, unspecified                              
#>  3 A92.5  Zika virus disease                                                   
#>  4 B02.0  Zoster encephalitis                                                  
#>  5 B02.1  Zoster meningitis                                                    
#>  6 B02.30 Zoster ocular disease, unspecified                                   
#>  7 B02.31 Zoster conjunctivitis                                                
#>  8 B02.32 Zoster iridocyclitis                                                 
#>  9 B02.33 Zoster keratitis                                                     
#> 10 B02.34 Zoster scleritis                                                     
#> # ℹ 40 more rows

While the call below returns only the ICD-10 codes
containing “Z”:

icd10api(code = "z", field = "code", limit = 50)

#> # A tibble: 50 × 2
#>    code    description                                                          
#>    <chr>   <chr>                                                                
#>  1 Z00.00  Encounter for general adult medical examination without abnormal fin…
#>  2 Z00.01  Encounter for general adult medical examination with abnormal findin…
#>  3 Z00.110 Health examination for newborn under 8 days old                      
#>  4 Z00.111 Health examination for newborn 8 to 28 days old                      
#>  5 Z00.121 Encounter for routine child health examination with abnormal findings
#>  6 Z00.129 Encounter for routine child health examination without abnormal find…
#>  7 Z00.2   Encounter for examination for period of rapid growth in childhood    
#>  8 Z00.3   Encounter for examination for adolescent development state           
#>  9 Z00.5   Encounter for examination of potential donor of organ and tissue     
#> 10 Z00.6   Encounter for examination for normal comparison and control in clini…
#> # ℹ 40 more rows
…
